{
    "config": {
        "chainId": 2314,
        "homesteadBlock": 0,
        "eip155Block": 0,
        "eip158Block": 0
    },
    "difficulty": "0x400",
    "gasLimit": "0x8000000",
    "alloc": {}
}
